<svg viewBox="0 0 179 68" xmlns="http://www.w3.org/2000/svg" fill-rule="evenodd" clip-rule="evenodd" stroke-linejoin="round" stroke-miterlimit="1.414">
  <path d="M.298 26.73c0-.231.184-.44.438-.44h9.57a.44.44 0 0 1 .44.44v2.519a.44.44 0 0 1-.44.44H3.903v2.865h5.27c.23 0 .437.209.437.439v2.519c0 .254-.207.44-.438.44H3.904v3.12h6.401a.44.44 0 0 1 .44.44v2.519a.438.438 0 0 1-.44.438H.736a.437.437 0 0 1-.438-.438V26.73zM17.311 26.73c0-.231.184-.44.438-.44H20.5c.231 0 .44.209.44.44v12.342h5.5c.254 0 .44.208.44.44v2.519a.438.438 0 0 1-.44.438h-8.69a.437.437 0 0 1-.439-.438V26.73zM32.59 26.73c0-.231.184-.44.438-.44h9.568c.256 0 .44.209.44.44v2.519a.44.44 0 0 1-.44.44h-6.4v2.865h5.268c.231 0 .44.209.44.439v2.519a.44.44 0 0 1-.44.44h-5.269v3.12h6.401c.256 0 .44.208.44.44v2.519a.438.438 0 0 1-.44.438h-9.568a.438.438 0 0 1-.439-.438V26.73zM51.197 26.43a.441.441 0 0 1 .416-.37h.37c.115 0 .324.092.392.23l5.362 9.985h.046l5.362-9.985c.07-.138.278-.23.394-.23h.37c.184 0 .393.162.415.37l2.612 15.53c.046.3-.16.509-.439.509H63.77c-.207 0-.415-.184-.438-.37l-1.04-7.141h-.047l-3.883 7.488a.542.542 0 0 1-.392.255h-.416a.503.503 0 0 1-.394-.255l-3.906-7.488h-.045L52.191 42.1a.45.45 0 0 1-.44.369h-2.727c-.277 0-.486-.208-.439-.508l2.612-15.531zM73.364 26.73c0-.231.184-.44.438-.44h9.57c.254 0 .438.209.438.44v2.519c0 .23-.184.44-.439.44h-6.4v2.865h5.268c.231 0 .438.209.438.439v2.519c0 .254-.207.44-.438.44H76.97v3.12h6.401c.255 0 .44.208.44.44v2.519a.437.437 0 0 1-.44.438h-9.569a.437.437 0 0 1-.438-.438V26.73zM90.353 26.476c0-.231.208-.416.44-.416h.577l9.222 8.875h.024V26.73c0-.231.184-.44.438-.44h2.774c.231 0 .44.209.44.44v15.555c0 .23-.209.416-.44.416h-.37a.683.683 0 0 1-.3-.116l-9.13-9.176h-.024v8.622c0 .23-.184.438-.438.438h-2.75a.454.454 0 0 1-.44-.438l-.023-15.555zM113.792 29.689h-3.306a.439.439 0 0 1-.438-.44v-2.52c0-.23.184-.438.438-.438h10.262a.44.44 0 0 1 .44.439v2.519a.44.44 0 0 1-.44.44h-3.305v12.34c0 .232-.208.44-.438.44h-2.775a.455.455 0 0 1-.438-.44V29.69z" fill="#23343f"/>
  <path d="M144.294 33.35c1.641 0 3.123.195 4.405.578 1.25.375 2.316.899 3.17 1.558.831.642 1.446 1.388 1.881 2.28.437.897.648 1.855.648 2.932 0 1.016-.19 2.032-.568 3.018-.352.922-.997 1.778-1.914 2.543-.96.799-2.3 1.462-3.984 1.972-1.3.394-2.886.643-4.73.742.856-.908 1.523-2.02 1.98-3.308.427-1.207.72-2.49.872-3.816.147-1.277.221-2.406.221-3.357 0-1.698-.428-3.148-1.274-4.313a4.322 4.322 0 0 0-.79-.83h.083m-12.627 10.292l.006-.066c.004-.034.006-.068.011-.105.091-.685.402-1.277.95-1.805.62-.602 1.396-.894 2.372-.894 1.021 0 1.614.269 2.226.82.207.188.371.402.5.637.052.129.18.519-.156.586l-5.372 1.073s-.549.095-.525.437c0 0-.044-.273-.012-.683m4.96-17.567c.367-2.011.654-3.62.871-4.88.348.065.75.13 1.21.2.857.129 1.794.26 2.785.387 1.01.129 2.028.238 3.025.323 1.022.088 1.917.133 2.66.133 1.87 0 3.617-.127 5.196-.377.99-.158 1.848-.33 2.592-.515a8.52 8.52 0 0 1-.286.597c-.364.693-.996 1.407-1.88 2.122-.91.735-2.149 1.39-3.684 1.944l-.042.015c-1.162.41-3.324 1.233-5.794 1.276-.199.004-.392.004-.579.004-1.1 0-1.977-.043-2.927-.142-.963-.1-1.987-.28-3.222-.563l-.024-.005c.035-.176.068-.35.098-.52m3.01 2.427c1.045.109 1.965.148 3.065.148l.594-.003c2.664-.026 4.974-.911 6.28-1.371 1.685-.593 3.04-1.328 4.07-2.163 1.033-.834 1.775-1.682 2.227-2.545.452-.862.68-1.534.68-2.015 0-.198-.044-.375-.129-.53-.083-.155-.296-.261-.635-.318-.906.312-2.114.587-3.627.827s-3.173.36-4.983.36a30.35 30.35 0 0 1-2.545-.127 72.903 72.903 0 0 1-2.969-.317c-.99-.128-1.908-.255-2.757-.382-.849-.13-1.498-.247-1.95-.361-.085 0-.199.02-.34.064-.142.043-.24.148-.297.317a387.211 387.211 0 0 1-1.019 5.748c-.452 2.474-1.187 5.52-2.205 9.139 0 .17.056.305.17.404.113.099.24.148.382.148.254 0 .558-.1.912-.297.353-.197.791-.423 1.314-.68.523-.253 1.16-.478 1.91-.678.748-.196 1.632-.295 2.651-.295 1.64 0 2.8.466 3.478 1.398.677.934 1.017 2.108 1.017 3.52 0 .906-.07 1.973-.213 3.204a15.993 15.993 0 0 1-.804 3.52c-.397 1.116-.963 2.064-1.698 2.842s-1.589 1.138-2.804 1.138c-.14 0-.442-.014-.766-.056a8.587 8.587 0 0 1-.718-.13c-1.085-.226-1.833-.388-2.557-.675-.206-.081-.47-.202-.66-.286v-.001a6.058 6.058 0 0 1-1.62-1.007c-.45-.39-.767-.787-1.002-1.252l-.006-.012-.038-.076c-.158-.358.533-.52.534-.52l5.494-1.153.541-.104c.79-.156.758-.864.746-.986-.144-.95-.548-1.734-1.225-2.345-.863-.777-1.772-1.166-3.128-1.166-1.33 0-2.433.424-3.31 1.272-.876.848-1.4 1.93-1.387 3.259.01.743.11 1.3.352 1.932.311.815.781 1.503 1.545 2.168.764.665 1.86 1.216 3.287 1.653 1.427.438 3.358.658 5.79.658 2.826 0 5.174-.283 7.04-.848 1.866-.566 3.35-1.308 4.454-2.227 1.102-.92 1.873-1.951 2.31-3.096a9.72 9.72 0 0 0 .658-3.5c0-1.271-.26-2.445-.784-3.52a7.744 7.744 0 0 0-2.27-2.757c-.989-.763-2.19-1.357-3.605-1.781-1.414-.424-3.012-.636-4.792-.636-1.64 0-3.239.128-4.793.382-1.556.254-3.096.72-4.624 1.399l1.373-5.875c1.101.254 2.233.472 3.385.59" fill="#e5894a"/>
  <path d="M178.8 33.97L154.831.98a.608.608 0 0 0-.683-.221L115.364 13.36a.608.608 0 0 0-.422.58v10.162h1.221v-9.72l37.94-12.326 23.45 32.274-23.45 32.274-37.94-12.328v-9.277h-1.22v9.72c0 .265.17.499.421.58l38.784 12.603a.615.615 0 0 0 .683-.222l23.97-32.991a.612.612 0 0 0 0-.718" fill="#e5894a"/>
</svg>
